{
    "development": {
        "username": "postgres",
        "password": "p4ssw0rd",
        "database": "postgres",
        "host": "62.171.143.155",
        "dialect": "postgres",
        "define": {
            "timestamps": false
        },
        "logging": false
    }
}